Product name,sku,attribute_set,website_id,store_view_code,product_type,categories,description,tax_class_name,visibility,price,meta_title,meta_keywords,meta_description,image1,image2,image3,image4,image5,additional_attributes,associated_skus,configure_attribute,enable_store_id,,,,
ELIA | Off White Leather,09072019,Default,1,,Configurable,Schoenen|Meisjes|Babyschoenen,ELIA | Off White Leather ELIAwhitec8,Taxable Goods,"Catalog, Search",49,ELIA | Off White Leather,ELIA | Off White Leather,ELIA | Off White Leather,EliaOffwhiteLeather1.jpg,EliaOffwhiteLeather2.jpg,EliaOffwhiteLeather3.jpg,EliaOffwhiteLeather4.jpg,EliaOffwhiteLeather1.jpg,,"09072019-1, 09072019-2, 09072019-3, 09072019-4, 09072019-5",size_booties,"2,3",,,,"8719549080665"", ""8719549080672"", ""8719549080689"", ""8719549080696"", ""8719549125106"
ELIA | Off White Leather-0-6m,09072019-1,Default,1,,Simple,Schoenen|Meisjes|Babyschoenen,ELIA | Off White Leather-0-6m ELIAswhite8-1,Taxable Goods,Not Visible Individually,49,ELIA | Off White Leather,ELIA | Off White Leather,ELIA | Off White Leather,EliaOffwhiteLeather1.jpg,EliaOffwhiteLeather2.jpg,EliaOffwhiteLeather3.jpg,EliaOffwhiteLeather1.jpg,EliaOffwhiteLeather1.jpg,size_booties=0-6m,,,"2,3",,,,
ELIA | Off White Leather-6-12m,09072019-2,Default,1,,Simple,Schoenen|Meisjes|Babyschoenen,ELIA | Off White Leather-6-12m ELIAswhite8-2,Taxable Goods,Not Visible Individually,49,ELIA | Off White Leather,ELIA | Off White Leather,ELIA | Off White Leather,EliaOffwhiteLeather1.jpg,EliaOffwhiteLeather2.jpg,EliaOffwhiteLeather3.jpg,EliaOffwhiteLeather1.jpg,EliaOffwhiteLeather1.jpg,size_booties=6-12m,,,"2,3",,,,
ELIA | Off White Leather-12-18m,09072019-3,Default,1,,Simple,Schoenen|Meisjes|Babyschoenen,ELIA | Off White Leather-12-18m ELIAswhite8-3,Taxable Goods,Not Visible Individually,49,ELIA | Off White Leather,ELIA | Off White Leather,ELIA | Off White Leather,EliaOffwhiteLeather1.jpg,EliaOffwhiteLeather2.jpg,EliaOffwhiteLeather3.jpg,EliaOffwhiteLeather1.jpg,EliaOffwhiteLeather1.jpg,size_booties=12-18m,,,"2,3",,,,
ELIA | Off White Leather-18-24m,09072019-4,Default,1,,Simple,Schoenen|Meisjes|Babyschoenen,ELIA | Off White Leather-18-24m ELIAswhite8-4,Taxable Goods,Not Visible Individually,49,ELIA | Off White Leather,ELIA | Off White Leather,ELIA | Off White Leather,EliaOffwhiteLeather1.jpg,EliaOffwhiteLeather2.jpg,EliaOffwhiteLeather3.jpg,EliaOffwhiteLeather1.jpg,EliaOffwhiteLeather1.jpg,size_booties=18-24m,,,"2,3",,,,
ELIA | Off White Leather-24-30m,09072019-5,Default,1,,Simple,Schoenen|Meisjes|Babyschoenen,ELIA | Off White Leather-24-30m ELIAswhite8-5,Taxable Goods,Not Visible Individually,49,ELIA | Off White Leather,ELIA | Off White Leather,ELIA | Off White Leather,EliaOffwhiteLeather1.jpg,EliaOffwhiteLeather2.jpg,EliaOffwhiteLeather3.jpg,EliaOffwhiteLeather1.jpg,EliaOffwhiteLeather1.jpg,size_booties=24-30m,,,"2,3",,,,