Product name,sku,attribute_set,website_id,store_view_code,product_type,categories,description,tax_class_name,visibility,price,meta_title,meta_keywords,meta_description,image1,image2,image3,image4,image5,additional_attributes,associated_skus,configure_attribute,enable_store_id,,,,
ELIA | Off White Leather,9072019,Default,1,,Configurable,Schoenen|Meisjes|Babyschoenen,ELIA | Off White Leather ELIAwhitec8,Taxable Goods,"Catalog,Search",49,ELIA | Off White Leather ELIAwhitec8,ELIA | Off White Leather ELIAwhitec8,ELIA | Off White Leather ELIAwhitec8,EliaOffwhiteLeather1.jpg,EliaOffwhiteLeather2.jpg,EliaOffwhiteLeather3.jpg,EliaOffwhiteLeather4.jpg,EliaOffwhiteLeather5.jpg,,"9072019-1,9072019-2,9072019-3,9072019-4,9072019-5",size_booties,,,,,"8719549080665"", ""8719549080672"", ""8719549080689"", ""8719549080696"", ""8719549125106"
ELIA | Off White Leather-0-6m,9072019-1,Default,1,,Simple,Schoenen|Meisjes|Babyschoenen,ELIA | Off White Leather-0-6m ELIAswhite8-1,Taxable Goods,Not Visible Individually,49,ELIA | Off White Leather-0-6m ELIAswhite8-1,ELIA | Off White Leather-0-6m ELIAswhite8-1,ELIA | Off White Leather-0-6m ELIAswhite8-1,EliaOffwhiteLeather1.jpg,EliaOffwhiteLeather2.jpg,EliaOffwhiteLeather3.jpg,EliaOffwhiteLeather4.jpg,EliaOffwhiteLeather5.jpg,size_booties=0-6m,,,"2,3",,,,
ELIA | Off White Leather-6-12m,9072019-2,Default,1,,Simple,Schoenen|Meisjes|Babyschoenen,ELIA | Off White Leather-6-12m ELIAswhite8-2,Taxable Goods,Not Visible Individually,49,ELIA | Off White Leather-6-12m ELIAswhite8-2,ELIA | Off White Leather-6-12m ELIAswhite8-2,ELIA | Off White Leather-6-12m ELIAswhite8-2,EliaOffwhiteLeather1.jpg,EliaOffwhiteLeather2.jpg,EliaOffwhiteLeather3.jpg,EliaOffwhiteLeather4.jpg,EliaOffwhiteLeather5.jpg,size_booties=6-12m,,,8,,,,
ELIA | Off White Leather-12-18m,9072019-3,Default,1,,Simple,Schoenen|Meisjes|Babyschoenen,ELIA | Off White Leather-12-18m ELIAswhite8-3,Taxable Goods,Not Visible Individually,49,ELIA | Off White Leather-12-18m ELIAswhite8-3,ELIA | Off White Leather-12-18m ELIAswhite8-3,ELIA | Off White Leather-12-18m ELIAswhite8-3,EliaOffwhiteLeather1.jpg,EliaOffwhiteLeather2.jpg,EliaOffwhiteLeather3.jpg,EliaOffwhiteLeather4.jpg,EliaOffwhiteLeather5.jpg,size_booties=12-18m,,,"9,1",,,,
ELIA | Off White Leather-18-24m,9072019-4,Default,1,,Simple,Schoenen|Meisjes|Babyschoenen,ELIA | Off White Leather-18-24m ELIAswhite8-4,Taxable Goods,Not Visible Individually,49,ELIA | Off White Leather-18-24m ELIAswhite8-4,ELIA | Off White Leather-18-24m ELIAswhite8-4,ELIA | Off White Leather-18-24m ELIAswhite8-4,EliaOffwhiteLeather1.jpg,EliaOffwhiteLeather2.jpg,EliaOffwhiteLeather3.jpg,EliaOffwhiteLeather4.jpg,EliaOffwhiteLeather5.jpg,size_booties=18-24m,,,,,,,
ELIA | Off White Leather-24-30m,9072019-5,Default,1,,Simple,Schoenen|Meisjes|Babyschoenen,ELIA | Off White Leather-24-30m ELIAswhite8-5,Taxable Goods,Not Visible Individually,49,ELIA | Off White Leather-24-30m ELIAswhite8-5,ELIA | Off White Leather-24-30m ELIAswhite8-5,ELIA | Off White Leather-24-30m ELIAswhite8-5,EliaOffwhiteLeather1.jpg,EliaOffwhiteLeather2.jpg,EliaOffwhiteLeather3.jpg,EliaOffwhiteLeather4.jpg,EliaOffwhiteLeather5.jpg,size_booties=24-30m,,,3,,,,