Product name,sku,attribute_set,website_id,store_view_code,product_type,categories,description,tax_class_name,visibility,price,meta_title,meta_keywords,meta_description,image1,image2,image3,image4,image5,additional_attributes,associated_skus,configure_attribute,enable_store_id,,,,
ELIA | Off White Leather,7777,Default,1,,Configurable,Schoenen|Meisjes|Babyschoenen,ELIA | Off White Leather ELIAwhitec8,Taxable Goods,"Catalog,Search",49,ELIA | Off White Leather ELIAwhitec8,ELIA | Off White Leather ELIAwhitec8,ELIA | Off White Leather ELIAwhitec8,1.jpg,2.jpg,3.jpg,4.jpg,5.jpg,,"8888,9999,5555,4444,6666-1","size_booties,size_schoentjes",,,,,"8719549080665"", ""8719549080672"", ""8719549080689"", ""8719549080696"", ""8719549125106"
ELIA | Off White Leather-0-6m,9999,Default,1,,Simple,Schoenen|Meisjes|Babyschoenen,ELIA | Off White Leather-0-6m ELIAswhite8-1,Taxable Goods,Not Visible Individually,49,ELIA | Off White Leather-0-6m ELIAswhite8-1,ELIA | Off White Leather-0-6m ELIAswhite8-1,ELIA | Off White Leather-0-6m ELIAswhite8-1,1.jpg,2.jpg,3.jpg,4.jpg,5.jpg,"size_schoentjes=ABwdedS,size_booties=xyz",,,"2,3",,,,
ELIA | Off White Leather-6-12m,8888,Default,1,,Simple,Schoenen|Meisjes|Babyschoenen,ELIA | Off White Leather-6-12m ELIAswhite8-2,Taxable Goods,Not Visible Individually,49,ELIA | Off White Leather-6-12m ELIAswhite8-2,ELIA | Off White Leather-6-12m ELIAswhite8-2,ELIA | Off White Leather-6-12m ELIAswhite8-2,1.jpg,2.jpg,3.jpg,4.jpg,5.jpg,"size_schoentjes=ABSe,size_booties=xyzfg",,,8,,,,
ELIA | Off White Leather-12-18m,6666-1,Default,1,,Simple,Schoenen|Meisjes|Babyschoenen,ELIA | Off White Leather-12-18m ELIAswhite8-3,Taxable Goods,Not Visible Individually,49,ELIA | Off White Leather-12-18m ELIAswhite8-3,ELIA | Off White Leather-12-18m ELIAswhite8-3,ELIA | Off White Leather-12-18m ELIAswhite8-3,1.jpg,2.jpg,3.jpg,4.jpg,5.jpg,"size_schoentjes=ABdS,size_booties=xyrz",,,"9,1",,,,
ELIA | Off White Leather-18-24m,5555,Default,1,,Simple,Schoenen|Meisjes|Babyschoenen,ELIA | Off White Leather-18-24m ELIAswhite8-4,Taxable Goods,Not Visible Individually,49,ELIA | Off White Leather-18-24m ELIAswhite8-4,ELIA | Off White Leather-18-24m ELIAswhite8-4,ELIA | Off White Leather-18-24m ELIAswhite8-4,1.jpg,2.jpg,3.jpg,4.jpg,5.jpg,"size_schoentjes=ABwdS,size_booties=xyrzd",,,,,,,
ELIA | Off White Leather-24-30m,4444,Default,1,,Simple,Schoenen|Meisjes|Babyschoenen,ELIA | Off White Leather-24-30m ELIAswhite8-5,Taxable Goods,Not Visible Individually,49,ELIA | Off White Leather-24-30m ELIAswhite8-5,ELIA | Off White Leather-24-30m ELIAswhite8-5,ELIA | Off White Leather-24-30m ELIAswhite8-5,1.jpg,2.jpg,3.jpg,4.jpg,5.jpg,"size_schoentjes=ABwdedS,size_booties=xtgyrzd",,,3,,,,
