Product name,sku,attribute_set,website_id,store_view_code,product_type,categories,description,tax_class_name,visibility,qty,price,meta_title,meta_keywords,meta_description,image1,image2,image3,image4,image5,additional_attributes,associated_skus,configure_attribute,enable_store_id
ELIA | Off White Leather-0-6m test1,9991,Default,1,,Simple,Schoenen|Meisjes|Babyschoenen,ELIA | Off White Leather-0-6m test1,Taxable Goods,Not Visible Individually,270,49,ELIA | Off White Leather-0-6m test1,ELIA | Off White Leather-0-6m test1,ELIA | Off White Leather-0-6m test1,1.jpg,2.jpg,3.jpg,4.jpg,5.jpg,"size_schoentjes=ABwdedS,size_booties=xyz",,,
ELIA | Off White Leather-0-8m test2,9992,Default,1,,Simple,Schoenen|Meisjes|Babyschoenen,ELIA | Off White Leather-0-8m test2,Taxable Goods,Not Visible Individually,300,49,ELIA | Off White Leather-0-8m test2,ELIA | Off White Leather-0-8m test2,ELIA | Off White Leather-0-8m test2,1.jpg,2.jpg,3.jpg,4.jpg,5.jpg,"size_schoentjes=ABwdedS,size_booties=xyz",,,
