Product name,sku,attribute_set_code,website_id,store_view_code,product_type,categories,description,tax_class_name,visibility,price,meta_title,meta_keywords,meta_description,image1,image2,image3,image4,image5,additional_attributes,associated_skus,configure_attribute,enable_store_id,,,,
ELIA | Off White Leather,0716-LE060-00000,Default,1,,Configurable,Schoenen|Meisjes|Babyschoenen,ELIA | Off White Leather ELIAwhitec8,Taxable Goods,"Catalog, Search",49,ELIA | Off White Leather,ELIA | Off White Leather,ELIA | Off White Leather,EliaOffwhiteLeather1.jpg,EliaOffwhiteLeather2.jpg,EliaOffwhiteLeather3.jpg,EliaOffwhiteLeather4.jpg,EliaOffwhiteLeather5.jpg,,"8719549125106, 8719549080696, 8719549080689, 8719549080672, 8719549080665","size_booties,size_schoentjes",,,,,"8719549080665"", ""8719549080672"", ""8719549080689"", ""8719549080696"", ""8719549125106"
ELIA | Off White Leather-0-6m,8719549080665,Default,1,,Simple,Schoenen|Meisjes|Babyschoenen,ELIA | Off White Leather-0-6m ELIAswhite8-1,Taxable Goods,"Catalog, Search",49,ELIA | Off White Leather,ELIA | Off White Leather,ELIA | Off White Leather,EliaOffwhiteLeather1.jpg,EliaOffwhiteLeather2.jpg,EliaOffwhiteLeather1.jpg,EliaOffwhiteLeather1.jpg,EliaOffwhiteLeather1.jpg,size_booties=0-6m,,,"2,3",,,,
ELIA | Off White Leather-6-12m,8.72E+12,Default,1,,Simple,Schoenen|Meisjes|Babyschoenen,ELIA | Off White Leather-6-12m ELIAswhite8-2,Taxable Goods,"Catalog, Search",49,ELIA | Off White Leather,ELIA | Off White Leather,ELIA | Off White Leather,EliaOffwhiteLeather1.jpg,EliaOffwhiteLeather2.jpg,EliaOffwhiteLeather1.jpg,EliaOffwhiteLeather1.jpg,EliaOffwhiteLeather1.jpg,size_booties=6-12m,,,8,,,,
ELIA | Off White Leather-12-18m,8.72E+12,Default,1,,Simple,Schoenen|Meisjes|Babyschoenen,ELIA | Off White Leather-12-18m ELIAswhite8-3,Taxable Goods,"Catalog, Search",49,ELIA | Off White Leather,ELIA | Off White Leather,ELIA | Off White Leather,EliaOffwhiteLeather1.jpg,EliaOffwhiteLeather2.jpg,EliaOffwhiteLeather1.jpg,EliaOffwhiteLeather1.jpg,EliaOffwhiteLeather1.jpg,size_booties=12-18m,,,"9,1",,,,
ELIA | Off White Leather-18-24m,8719549080696,Default,1,,Simple,Schoenen|Meisjes|Babyschoenen,ELIA | Off White Leather-18-24m ELIAswhite8-4,Taxable Goods,"Catalog, Search",49,ELIA | Off White Leather,ELIA | Off White Leather,ELIA | Off White Leather,EliaOffwhiteLeather1.jpg,EliaOffwhiteLeather2.jpg,EliaOffwhiteLeather1.jpg,EliaOffwhiteLeather1.jpg,EliaOffwhiteLeather1.jpg,size_booties=18-24m,,,,,,,
ELIA | Off White Leather-24-30m,8719549125106,Default,1,,Simple,Schoenen|Meisjes|Babyschoenen,ELIA | Off White Leather-24-30m ELIAswhite8-5,Taxable Goods,"Catalog, Search",49,ELIA | Off White Leather,ELIA | Off White Leather,ELIA | Off White Leather,EliaOffwhiteLeather1.jpg,EliaOffwhiteLeather2.jpg,EliaOffwhiteLeather1.jpg,EliaOffwhiteLeather1.jpg,EliaOffwhiteLeather1.jpg,size_booties=24-30m,,,3,,,,
,,,,,,,,,,,,,,,,,,,,,,,,,,
,,,,,,,,,,,,,,,,,,,,,,,,,,
,,,,,,,,,,,,,,,,,,,,,,,,,,
,,,,,,,,,,,,,,,,,,,,,,,,,,
,,,,,,,,,,,,,,,,,,,,,,,,,,
,,,,,,,,,,,,,,,,,,,,,,,,,,