Product name,sku,attribute_set,website_id,store_view_code,product_type,categories,description,tax_class_name,visibility,price,meta_title,meta_keywords,meta_description,image1,image2,image3,image4,image5,additional_attributes,associated_skus,configure_attribute,enable_store_id,,,,
ELIA | Off White Leather ELIAwhitec8,ELIAwhitec8,Default,1,,Configurable,Schoenen|Meisjes|Babyschoenen,ELIA | Off White Leather ELIAwhitec8,Taxable Goods,"Catalog,Search",1000,ELIA | Off White Leather ELIAwhitec8,ELIA | Off White Leather ELIAwhitec8,ELIA | Off White Leather ELIAwhitec8,1.jpg,2.jpg,3.jpg,4.jpg,5.jpg,,"ELIAswhite8-1,ELIAswhite8-2,ELIAswhite8-3,ELIAswhite8-4,ELIAswhite8-5","size_booties,size_schoentjes",,,,,"8719549080665"", ""8719549080672"", ""8719549080689"", ""8719549080696"", ""8719549125106"
ELIA | Off White Leather-0-6m ELIAswhite8-1,ELIAswhite8-1,Default,1,,Simple,Schoenen|Meisjes|Babyschoenen,ELIA | Off White Leather-0-6m ELIAswhite8-1,Taxable Goods,"Catalog,Search",500,ELIA | Off White Leather-0-6m ELIAswhite8-1,ELIA | Off White Leather-0-6m ELIAswhite8-1,ELIA | Off White Leather-0-6m ELIAswhite8-1,1.jpg,2.jpg,3.jpg,4.jpg,5.jpg,"size_schoentjes=ABwdedS,size_booties=xyz",,,"2,3",,,,
ELIA | Off White Leather-6-12m ELIAswhite8-2,ELIAswhite8-2,Default,1,,Simple,Schoenen|Meisjes|Babyschoenen,ELIA | Off White Leather-6-12m ELIAswhite8-2,Taxable Goods,"Catalog,Search",500,ELIA | Off White Leather-6-12m ELIAswhite8-2,ELIA | Off White Leather-6-12m ELIAswhite8-2,ELIA | Off White Leather-6-12m ELIAswhite8-2,1.jpg,2.jpg,3.jpg,4.jpg,5.jpg,"size_schoentjes=ABSe,size_booties=xyzfg",,,8,,,,
ELIA | Off White Leather-12-18m ELIAswhite8-3,ELIAswhite8-3,Default,1,,Simple,Schoenen|Meisjes|Babyschoenen,ELIA | Off White Leather-12-18m ELIAswhite8-3,Taxable Goods,"Catalog,Search",500,ELIA | Off White Leather-12-18m ELIAswhite8-3,ELIA | Off White Leather-12-18m ELIAswhite8-3,ELIA | Off White Leather-12-18m ELIAswhite8-3,1.jpg,2.jpg,3.jpg,4.jpg,5.jpg,"size_schoentjes=ABdS,size_booties=xyrz",,,"9,1",,,,
ELIA | Off White Leather-18-24m ELIAswhite8-4,ELIAswhite8-4,Default,1,,Simple,Schoenen|Meisjes|Babyschoenen,ELIA | Off White Leather-18-24m ELIAswhite8-4,Taxable Goods,"Catalog,Search",500,ELIA | Off White Leather-18-24m ELIAswhite8-4,ELIA | Off White Leather-18-24m ELIAswhite8-4,ELIA | Off White Leather-18-24m ELIAswhite8-4,1.jpg,2.jpg,3.jpg,4.jpg,5.jpg,"size_schoentjes=ABwdS,size_booties=xyrzd",,,,,,,
ELIA | Off White Leather-24-30m ELIAswhite8-5,ELIAswhite8-5,Default,1,,Simple,Schoenen|Meisjes|Babyschoenen,ELIA | Off White Leather-24-30m ELIAswhite8-5,Taxable Goods,"Catalog,Search",500,ELIA | Off White Leather-24-30m ELIAswhite8-5,ELIA | Off White Leather-24-30m ELIAswhite8-5,ELIA | Off White Leather-24-30m ELIAswhite8-5,1.jpg,2.jpg,3.jpg,4.jpg,5.jpg,"size_schoentjes=ABwdedS,size_booties=xtgyrzd",,,3,,,,
ELIA | Off White Leather-24-30m ELIAswhite8-6,ELIAswhite8-6,Default,1,,Simple,Schoenen|Meisjes|Babyschoenen,ELIA | Off White Leather-24-30m ELIAswhite8-6,Taxable Goods,"Catalog,Search",500,ELIA | Off White Leather-24-30m ELIAswhite8-6,ELIA | Off White Leather-24-30m ELIAswhite8-6,ELIA | Off White Leather-24-30m ELIAswhite8-6,1.jpg,2.jpg,3.jpg,4.jpg,5.jpg,"size_schoentjes=ABdS,size_booties=xyrz",,,"2,8,9,7",,,,
ELIA | Off White Leather-24-30m ELIAswhite8-7,ELIAswhite8-7,Default,1,,Simple,Schoenen|Meisjes|Babyschoenen,ELIA | Off White Leather-24-30m ELIAswhite8-7,Taxable Goods,"Catalog,Search",500,ELIA | Off White Leather-24-30m ELIAswhite8-7,ELIA | Off White Leather-24-30m ELIAswhite8-7,ELIA | Off White Leather-24-30m ELIAswhite8-7,1.jpg,2.jpg,3.jpg,4.jpg,5.jpg,"size_schoentjes=ABwdedS,size_booties=xtgyrzd",,,"1,7,3",,,,
