Product name,sku,attribute_set,website_id,store_view_code,product_type,Categories,description,tax_class_name,visibility,price,meta_title,meta_keywords,meta_description,image1,image2,image3,image4,image5,additional_attributes,associated_skus,configure_attribute,enable_store_id,qty,status,,
ELIA | Off White Leather,0716-LE060-00000,Default,1,,Configurable,Baby shoes,ELIA | Off White Leather ELIAwhitec8,Taxable Goods,"Catalog,Search",49,ELIA | Off White Leather ELIAwhitec8,ELIA | Off White Leather ELIAwhitec8,ELIA | Off White Leather ELIAwhitec8,1.jpg,2.jpg,3.jpg,4.jpg,5.jpg,,"8719549080665,8719549080672, 8719549080689,8719549080696",size_booties,,0,1,,"8719549080665"", ""8719549080672"", ""8719549080689"", ""8719549080696"
ELIA | Off White Leather-0-6m,8719549080665,Default,1,,Simple,Baby shoes,ELIA | Off White Leather-0-6m ELIAswhite8-1,Taxable Goods,Not Visible Individually,49,ELIA | Off White Leather-0-6m ELIAswhite8-1,ELIA | Off White Leather-0-6m ELIAswhite8-1,ELIA | Off White Leather-0-6m ELIAswhite8-1,1.jpg,2.jpg,3.jpg,4.jpg,5.jpg,size_booties=0-6m | anti-slip suede sole,,,,150,1,,
ELIA | Off White Leather-6-12m,8719549080672,Default,1,,Simple,Baby shoes,ELIA | Off White Leather-6-12m ELIAswhite8-2,Taxable Goods,Not Visible Individually,49,ELIA | Off White Leather-6-12m ELIAswhite8-2,ELIA | Off White Leather-6-12m ELIAswhite8-2,ELIA | Off White Leather-6-12m ELIAswhite8-2,1.jpg,2.jpg,3.jpg,4.jpg,5.jpg,size_booties=6-12m | anti-slip suede sole,,,,250,1,,
ELIA | Off White Leather-12-18m,8719549080689,Default,1,,Simple,Baby shoes,ELIA | Off White Leather-12-18m ELIAswhite8-3,Taxable Goods,Not Visible Individually,49,ELIA | Off White Leather-12-18m ELIAswhite8-3,ELIA | Off White Leather-12-18m ELIAswhite8-3,ELIA | Off White Leather-12-18m ELIAswhite8-3,1.jpg,2.jpg,3.jpg,4.jpg,5.jpg,size_booties=12-18m | flexible rubber sole,,,,350,1,,
ELIA | Off White Leather-18-24m,8719549080696,Default,1,,Simple,Baby shoes,ELIA | Off White Leather-18-24m ELIAswhite8-4,Taxable Goods,Not Visible Individually,49,ELIA | Off White Leather-18-24m ELIAswhite8-4,ELIA | Off White Leather-18-24m ELIAswhite8-4,ELIA | Off White Leather-18-24m ELIAswhite8-4,1.jpg,2.jpg,3.jpg,4.jpg,5.jpg,size_booties=18-24m | flexible rubber sole,,,,200,1,,